Church numberals,Raw lambdas,Simple reductions,Equations
Convert $$\lambda f.\lambda x.f(f(f(f\ x)))$$ to base_10 with hindu-arabic numerals?,4,5,3,6,0
$$\beta$$-reduce $$(\lambda m.\lambda n.\lambda f.\lambda x.m f (n f x))(\lambda f.\lambda x.f(x))\ \lambda f.\lambda x.f(fx)$$:,$$\lambda f.\lambda x.f(f(fx))$$,$$\lambda f.\lambda x.f(f(f(fx)))$$,$$\lambda f.\lambda x.(f(fx))$$,$$\lambda f.\lambda x.f(f(f(f(fx))))$$,1
Reduce $$ADD (SUCC\ 4) 1$$:,$$6$$,$$5$$,$$7$$,$$8$$,2
What is x such that $$ADD(MULT\ x\ x)(MULT\ 4\ x) \equiv 12$$:,$$2$$,$$1$$,$$4$$,$$3$$,3
Convert $$\lambda f.\lambda x.f(f(f(f(f(x)))))$$ to base_10 with hindu-arabic numerals?,5,6,4,7,0